<svg width="1em" height="1em" viewBox="0 0 39 43" fill="none" xmlns="http://www.w3.org/2000/svg">
    <path d="M36.3409 6.18814H27.2734C26.8681 4.42922 25.8788 2.8597 24.467 1.7358C23.0552 0.611897 21.3042 0 19.5 0C17.6958 0 15.9448 0.611897 14.533 1.7358C13.1212 2.8597 12.1319 4.42922 11.7266 6.18814H2.65909C1.95386 6.18814 1.27751 6.46842 0.77883 6.96732C0.280153 7.46622 0 8.14288 0 8.84843V33.6778C0 34.3834 0.280153 35.06 0.77883 35.5589C1.27751 36.0578 1.95386 36.3381 2.65909 36.3381H13.2955V40.7719H11.5227C11.2876 40.7719 11.0622 40.8654 10.896 41.0317C10.7297 41.198 10.6364 41.4235 10.6364 41.6587C10.6364 41.8939 10.7297 42.1194 10.896 42.2857C11.0622 42.452 11.2876 42.5455 11.5227 42.5455H27.4773C27.7124 42.5455 27.9378 42.452 28.104 42.2857C28.2703 42.1194 28.3636 41.8939 28.3636 41.6587C28.3636 41.4235 28.2703 41.198 28.104 41.0317C27.9378 40.8654 27.7124 40.7719 27.4773 40.7719H25.7045V36.3381H36.3409C37.0461 36.3381 37.7225 36.0578 38.2212 35.5589C38.7198 35.06 39 34.3834 39 33.6778V8.84843C39 8.14288 38.7198 7.46622 38.2212 6.96732C37.7225 6.46842 37.0461 6.18814 36.3409 6.18814ZM19.5 1.75432C20.6311 1.7599 21.7391 2.0747 22.7043 2.66469C23.6695 3.25468 24.4551 4.09741 24.9762 5.10176C25.4974 6.10611 25.7341 7.23387 25.661 8.3631C25.5878 9.49234 25.2075 10.5801 24.5611 11.5087H19.9432C20.5309 11.5087 21.0945 11.2752 21.5101 10.8594C21.9256 10.4437 22.1591 9.87978 22.1591 9.29181C22.1591 8.70385 21.9256 8.13997 21.5101 7.72422C21.0945 7.30847 20.5309 7.0749 19.9432 7.0749H19.0568C18.9393 7.0749 18.8266 7.02819 18.7434 6.94504C18.6603 6.86189 18.6136 6.74911 18.6136 6.63152C18.6136 6.51393 18.6603 6.40115 18.7434 6.318C18.8266 6.23485 18.9393 6.18814 19.0568 6.18814H21.2727C21.5078 6.18814 21.7333 6.09471 21.8995 5.92841C22.0657 5.76211 22.1591 5.53656 22.1591 5.30138C22.1591 5.06619 22.0657 4.84064 21.8995 4.67434C21.7333 4.50804 21.5078 4.41461 21.2727 4.41461H20.3864C20.3864 4.17943 20.293 3.95388 20.1268 3.78758C19.9605 3.62128 19.7351 3.52785 19.5 3.52785C19.2649 3.52785 19.0395 3.62128 18.8732 3.78758C18.707 3.95388 18.6136 4.17943 18.6136 4.41461C18.0259 4.47341 17.4857 4.76336 17.1117 5.22069C16.7376 5.67802 16.5605 6.26525 16.6193 6.85321C16.6781 7.44117 16.9679 7.9817 17.425 8.35587C17.8822 8.73005 18.4691 8.90723 19.0568 8.84843H19.9432C20.0607 8.84843 20.1734 8.89515 20.2566 8.9783C20.3397 9.06145 20.3864 9.17422 20.3864 9.29181C20.3864 9.40941 20.3397 9.52218 20.2566 9.60533C20.1734 9.68848 20.0607 9.7352 19.9432 9.7352H17.7273C17.4922 9.7352 17.2667 9.82862 17.1005 9.99492C16.9343 10.1612 16.8409 10.3868 16.8409 10.622C16.8409 10.8571 16.9343 11.0827 17.1005 11.249C17.2667 11.4153 17.4922 11.5087 17.7273 11.5087H14.4389C13.7925 10.5801 13.4122 9.49234 13.339 8.3631C13.2659 7.23387 13.5026 6.10611 14.0238 5.10176C14.5449 4.09741 15.3305 3.25468 16.2957 2.66469C17.2609 2.0747 18.3689 1.7599 19.5 1.75432ZM1.77273 8.84843C1.77273 8.61325 1.86611 8.3877 2.03234 8.2214C2.19856 8.05509 2.42401 7.96167 2.65909 7.96167H11.5227C11.5427 9.19633 11.846 10.4099 12.4091 11.5087H9.75C9.51492 11.5087 9.28947 11.6021 9.12325 11.7685C8.95702 11.9348 8.86364 12.1603 8.86364 12.3955C8.86364 12.6307 8.95702 12.8562 9.12325 13.0225C9.28947 13.1888 9.51492 13.2823 9.75 13.2823H29.25C29.4851 13.2823 29.7105 13.1888 29.8768 13.0225C30.043 12.8562 30.1364 12.6307 30.1364 12.3955C30.1364 12.1603 30.043 11.9348 29.8768 11.7685C29.7105 11.6021 29.4851 11.5087 29.25 11.5087H26.5909C27.154 10.4099 27.4573 9.19633 27.4773 7.96167H36.3409C36.576 7.96167 36.8014 8.05509 36.9677 8.2214C37.1339 8.3877 37.2273 8.61325 37.2273 8.84843V29.244H1.77273V8.84843ZM23.9318 40.7719H15.0682V36.3381H23.9318V40.7719ZM37.2273 33.6778C37.2273 33.913 37.1339 34.1386 36.9677 34.3049C36.8014 34.4712 36.576 34.5646 36.3409 34.5646H2.65909C2.42401 34.5646 2.19856 34.4712 2.03234 34.3049C1.86611 34.1386 1.77273 33.913 1.77273 33.6778V31.0175H37.2273V33.6778Z" fill="currentColor"/>
    <path d="M33.4038 25.4935H32.5348V17.8961C32.5348 17.6722 32.4432 17.4575 32.2803 17.2992C32.1173 17.1409 31.8963 17.0519 31.6658 17.0519H28.1899C27.9594 17.0519 27.7384 17.1409 27.5754 17.2992C27.4124 17.4575 27.3209 17.6722 27.3209 17.8961V25.4935H25.5829V21.2727C25.5829 21.0488 25.4913 20.8341 25.3284 20.6758C25.1654 20.5175 24.9444 20.4286 24.7139 20.4286H21.238C21.0075 20.4286 20.7865 20.5175 20.6235 20.6758C20.4606 20.8341 20.369 21.0488 20.369 21.2727V25.4935H18.631V16.2078C18.631 15.9839 18.5395 15.7692 18.3765 15.6109C18.2135 15.4526 17.9925 15.3636 17.762 15.3636H14.2861C14.0556 15.3636 13.8346 15.4526 13.6716 15.6109C13.5087 15.7692 13.4171 15.9839 13.4171 16.2078V25.4935H11.6792V18.7402C11.6792 18.5164 11.5876 18.3016 11.4246 18.1433C11.2617 17.985 11.0406 17.8961 10.8102 17.8961H7.33424C7.10377 17.8961 6.88274 17.985 6.71977 18.1433C6.55681 18.3016 6.46525 18.5164 6.46525 18.7402V25.4935H5.59627C5.3658 25.4935 5.14477 25.5824 4.9818 25.7407C4.81884 25.8991 4.72728 26.1138 4.72728 26.3377C4.72728 26.5615 4.81884 26.7763 4.9818 26.9346C5.14477 27.0929 5.3658 27.1818 5.59627 27.1818H33.4038C33.6342 27.1818 33.8553 27.0929 34.0182 26.9346C34.1812 26.7763 34.2727 26.5615 34.2727 26.3377C34.2727 26.1138 34.1812 25.8991 34.0182 25.7407C33.8553 25.5824 33.6342 25.4935 33.4038 25.4935ZM8.20322 25.4935V19.5844H9.94119V25.4935H8.20322ZM15.1551 25.4935V17.0519H16.8931V25.4935H15.1551ZM22.107 25.4935V22.1169H23.8449V25.4935H22.107ZM29.0588 25.4935V18.7402H30.7968V25.4935H29.0588Z" fill="currentColor"/>
    <path d="M19.5 34.2727C19.6567 34.2727 19.807 34.1482 19.9178 33.9266C20.0286 33.7049 20.0909 33.4043 20.0909 33.0909C20.0909 32.7775 20.0286 32.4769 19.9178 32.2552C19.807 32.0336 19.6567 31.9091 19.5 31.9091C19.3433 31.9091 19.193 32.0336 19.0821 32.2552C18.9713 32.4769 18.9091 32.7775 18.9091 33.0909C18.9091 33.4043 18.9713 33.7049 19.0821 33.9266C19.193 34.1482 19.3433 34.2727 19.5 34.2727Z" fill="currentColor"/>
</svg>
