<svg width="60" height="60" viewBox="0 0 60 60" fill="none" xmlns="http://www.w3.org/2000/svg">
    <mask id="mask0" mask-type="alpha" maskUnits="userSpaceOnUse" x="0" y="0" width="60" height="60">
        <rect x="0.5" y="0.5" width="59" height="59" rx="29.5" fill="#F9F9FB" stroke="#E4E9F2"/>
    </mask>
    <g mask="url(#mask0)">
        <g opacity="0.5">
            <path opacity="0.5" d="M109.787 40.5625L108.754 39.7149L107.72 36.1725L106.687 30.6525L105.654 38.9977L104.62 39.5628L103.587 41.9751L102.554 44.5178L101.52 42.8226L100.487 36.6072L99.4538 35.6075L98.4205 33.782L97.3871 34.4991L96.3538 33.782L95.3205 35.4771L94.2871 42.5401H93.2538L92.2205 39.302L91.1871 39.7149L90.1538 34.9121L89.1205 29.4138L88.0871 31.6739L87.0538 35.9118L86.0205 33.3691L84.9871 29.4138L83.9538 28.5662L82.9205 31.6739L81.8871 35.2163L80.8538 34.6513L79.8205 31.8261L78.7871 33.1083L77.7538 29.0009L76.7205 32.9562L75.6871 32.5215L74.6538 31.9565L73.6205 33.6516L72.5872 35.6292L71.5538 30.6743L70.5205 29.1313L69.4872 31.8043L68.4538 26.5886L67.4205 28.9791L66.3872 31.9565L65.3538 32.6736H64.3205L63.2872 33.8037L62.2538 36.6289L61.2205 37.4765L60.1872 40.0192L59.1538 39.0195H58.1205H57.0872L56.0538 37.6069L55.0205 37.8894L53.9872 37.1722L53.5997 31.3697L52.5663 27.4144L51.533 25.1542L50.4997 25.3064L49.4663 27.849L48.433 31.3914L47.3997 30.9785L46.3664 37.3461L45.333 32.9779L44.2997 32.6954L43.2664 34.3905L42.233 33.2604L41.1997 31.1306L40.1664 34.5209L39.133 32.9779L38.0997 31.8478L37.0664 29.5876L36.033 28.7401L34.9997 31.4132L33.9664 33.3908L32.933 31.5653L31.8997 31.0002L30.8664 30.1527L29.833 27.4579L28.7997 28.7401L27.7664 34.9555L26.733 33.695L25.6997 35.3902L24.6664 34.1297L23.633 30.7394L22.5997 32.4346L21.5664 36.3899L20.5331 35.1294L19.4997 32.0217L18.4664 35.9769L17.4331 33.1517L16.3997 33.0213L15.3664 30.1961L14.3331 27.936L13.2997 30.0657L12.2664 29.3486L11.2331 27.6535L10.1997 30.4787L9.16639 28.6531L8.13306 30.2179L7.09972 29.9354L6.06639 33.1735L5.03306 33.5864L3.99972 32.8692L2.9664 34.2818L1.93306 38.8022L0.899734 38.6718L-0.133596 39.8018L-1.16693 38.3892L-2.20027 39.5193H-3.2336L-4.26694 40.3669L-5.30026 38.8239L-6.3336 39.5411L-7.36691 33.1735L-8.40025 34.5861L-9.4336 34.3036L-10.4669 30.4787L-11.5003 28.7835L-12.5336 31.3262L-13.5669 25.3933L-14.6002 24.3936L-15.6336 22.4159L-16.6669 21.8509L-17.7002 20.1558L-18.7336 17.3306L-19.7669 16.3526L-20.8002 16.6351L-21.8336 16.2222L-22.8669 16.6351L-23.9002 16.7873L-24.9336 16.6351L-25.9669 19.4603L-27.0002 17.7652L-28.0336 21.3076L-29.0669 20.873L-30.1002 23.2852L-31.1336 21.8726L-32.1669 25.5454L-33.2002 24.4153H-34.2336L-35.2669 25.5454L-36.3002 31.348L-37.3336 27.1101L-38.3669 25.1325L-39.4002 21.0468L-40.4336 25.4367L-41.4669 26.4364L-42.5002 26.0018L-43.5335 27.0015L-44.5669 25.741L-45.6002 25.4585L-46.6335 22.7854L-47.6669 21.2207L-48.7002 22.2204H-49.7335L-50.7669 22.6333L-51.8002 24.4588L-52.8335 29.8267L-53.8669 22.0682L-54.9002 23.1983L-55.9335 25.741L-56.9669 23.3287L-58.0002 24.7413L-59.0335 29.5442H-60.0669L-61.1002 29.1095L-62.1335 28.9791L-63.1668 27.9794L-64.2002 28.1316L-65.2335 30.5221L-66.2669 31.3697L-67.3002 29.9571L-68.3335 38.1502L-69.3669 38.9977L-70.4002 39.9974L-71.4335 39.4324L-72.4669 36.4551L-73.5002 32.2172L-74.5335 30.3917L-75.5668 27.7186L-76.6002 25.741L-77.6335 23.6112L-78.6668 24.7413L-79.7002 22.4811L-80.7335 16.6786L-81.7669 28.4141L-82.8002 29.4138L-83.8335 25.176L-84.8668 24.0459L-85.9002 24.763L-86.9335 26.5886L-87.9668 18.2651L-89.0001 19.3952L-90.0335 22.3508L-91.0668 20.0906L-92.1002 20.3731L-93.1335 20.8078L-94.1668 22.0682L-95.2002 23.4808L-96.2335 16.8307L-97.2668 16.4178L-98.3002 9.63731L-99.3335 11.3324L-100.367 8.3551L-101.4 8.22471L-102.433 7.65967L-103.467 8.50723L-104.5 9.48519L-105.533 12.18L-106.567 10.7674L-107.6 8.63762L-108.633 9.20267L-109.667 9.76771L-110.7 10.6153L-111.733 12.0279L-112.767 9.35479L-113.8 9.63731L-114.833 11.0499L-115.867 9.91983L-115.996 11.3107L-117.029 11.5932L-118.063 12.3104L-119.096 15.1356L-120.129 14.4184L-121.163 15.1356L-122.196 17.9608L-123.229 18.5259L-124.263 19.3734L-125.296 18.9605L-126.329 21.0903L-127.363 18.8301L-128.396 22.3725L-129.429 21.5249L-130.463 20.3948L-131.496 22.8071L-132.529 21.5249L-133.563 23.0897L-134.596 21.112L-135.629 25.0673L-136.663 26.7624L-137.696 31.5653L-138.729 30.2831L-139.763 25.0456L-140.796 21.5032L-141.829 27.7186L-142.863 23.6112L-143.896 19.9385L-144.929 18.5259H-145.963L-146.996 17.3958L-148.029 21.7857L-149.063 22.0682L-150.096 20.6556L-151.129 19.6559L-152.163 20.786L-153.196 20.5035L-154.229 18.6562L-155.263 20.3514L-156.296 23.0245L-157.329 23.4591L-158.363 22.329L-159.396 22.7637L-160.429 19.3734H-161.463L-162.496 12.8754L-163.529 19.8081L-164.563 15.5703L-165.596 14.7227L-166.629 16.2874L-167.663 18.1347L-168.696 18.4172L-169.729 17.4175L-170.763 16.9829L-171.796 21.6553L-172.829 24.9152L-173.863 20.9599L-174.896 25.0456L-175.929 27.0232L-176.963 24.8934L-177.996 21.6336L-179.029 25.176L-180.063 24.3284L-181.096 24.4805L-182.129 27.3057L-183.163 25.0456L-184.196 29.0009L-185.229 27.7404L-186.263 28.5879L-187.296 27.4579L-188.329 31.9782L-189.363 30.9785L-190.396 32.3911L-191.429 30.8481L-192.463 34.2384L-193.496 33.2387L-194.529 33.8037L-195.563 33.9341L-196.596 36.4768V63.4784H109.787V40.5625Z" fill="url(#paint0_linear)" fill-opacity="0.8"/>
            <path d="M109.787 40.8789L108.754 40.0231L107.72 36.4467L106.687 30.8736L105.654 39.2991L104.62 39.8696L103.587 42.305L102.554 44.8722L101.52 43.1608L100.487 36.8855L99.4538 35.8762L98.4205 34.0332L97.3871 34.7572L96.3538 34.0332L95.3205 35.7446L94.2871 42.8755H93.2538L92.2205 39.6063L91.1871 40.0231L90.1538 35.1741L89.1205 29.6229L88.0871 31.9048L87.0538 36.1834L86.0205 33.6163L84.9871 29.6229L83.9538 28.7672L82.9205 31.9048L81.8871 35.4813L80.8538 34.9108L79.8205 32.0584L78.7871 33.353L77.7538 29.2061L76.7205 33.1994L75.6871 32.7606L74.6538 32.1901L73.6205 33.9015L72.5872 35.8982L71.5538 30.8955L70.5205 29.3377L69.4872 32.0365L68.4538 26.7706L67.4205 29.1841L66.3872 32.1901L65.3538 32.9141H64.3205L63.2872 34.0551L62.2538 36.9075L61.2205 37.7632L60.1872 40.3303L59.1538 39.321H58.1205H57.0872L56.0538 37.8948L55.0205 38.1801L53.9872 37.456L53.5997 31.5977L52.5663 27.6043L51.533 25.3224L50.4997 25.476L49.4663 28.0432L48.433 31.6196L47.3997 31.2027L46.3664 37.6315L45.333 33.2213L44.2997 32.9361L43.2664 34.6475L42.233 33.5066L41.1997 31.3563L40.1664 34.7792L39.133 33.2213L38.0997 32.0804L37.0664 29.7985L36.033 28.9428L34.9997 31.6416L33.9664 33.6382L32.933 31.7951L31.8997 31.2247L30.8664 30.369L29.833 27.6482L28.7997 28.9428L27.7664 35.218L26.733 33.9454L25.6997 35.6568L24.6664 34.3842L23.633 30.9614L22.5997 32.6728L21.5664 36.6661L20.5331 35.3935L19.4997 32.2559L18.4664 36.2492L17.433 33.3969L16.3997 33.2652L15.3664 30.4128L14.3331 28.1309L13.2997 30.2812L12.2664 29.5571L11.2331 27.8457L10.1997 30.6981L9.16639 28.855L8.13307 30.4348L7.09972 30.1495L6.0664 33.4188L5.03307 33.8357L3.99973 33.1116L2.96641 34.5378L1.93307 39.1016L0.899734 38.97L-0.133584 40.1109L-1.16692 38.6847L-2.20026 39.8257H-3.2336L-4.26693 40.6814L-5.30026 39.1235L-6.33359 39.8476L-7.36691 33.4188L-8.40025 34.845L-9.43359 34.5597L-10.4669 30.6981L-11.5002 28.9867L-12.5336 31.5538L-13.5669 25.5638L-14.6002 24.5545L-15.6336 22.5578L-16.6669 21.9874L-17.7002 20.2759L-18.7336 17.4236L-19.7669 16.4362L-20.8002 16.7214L-21.8336 16.3046L-22.8669 16.7214L-23.9002 16.875L-24.9336 16.7214L-25.9669 19.5738L-27.0002 17.8624L-28.0336 21.4388L-29.0669 21L-30.1002 23.4355L-31.1336 22.0093L-32.1669 25.7174L-33.2002 24.5764H-34.2335L-35.2669 25.7174L-36.3002 31.5757L-37.3335 27.2972L-38.3669 25.3005L-39.4002 21.1755L-40.4335 25.6077L-41.4669 26.617L-42.5002 26.1782L-43.5335 27.1875L-44.5669 25.9149L-45.6002 25.6296L-46.6335 22.9308L-47.6669 21.3511L-48.7002 22.3604H-49.7335L-50.7669 22.7773L-51.8002 24.6203L-52.8335 30.0398L-53.8669 22.2068L-54.9002 23.3477L-55.9335 25.9149L-56.9669 23.4794L-58.0002 24.9056L-59.0335 29.7546H-60.0669L-61.1002 29.3158L-62.1335 29.1841L-63.1668 28.1748L-64.2002 28.3284L-65.2335 30.742L-66.2668 31.5977L-67.3002 30.1715L-68.3335 38.4434L-69.3668 39.2991L-70.4002 40.3084L-71.4335 39.7379L-72.4669 36.7319L-73.5002 32.4534L-74.5335 30.6103L-75.5668 27.9115L-76.6002 25.9149L-77.6335 23.7646L-78.6668 24.9056L-79.7002 22.6237L-80.7335 16.7653L-81.7668 28.6136L-82.8002 29.6229L-83.8335 25.3444L-84.8668 24.2034L-85.9002 24.9275L-86.9335 26.7706L-87.9668 18.367L-89.0001 19.508L-90.0335 22.492L-91.0668 20.2101L-92.1001 20.4954L-93.1335 20.9342L-94.1668 22.2068L-95.2001 23.633L-96.2335 16.9189L-97.2668 16.502L-98.3001 9.65633L-99.3335 11.3678L-100.367 8.36179L-101.4 8.23014L-102.433 7.65967L-103.467 8.51538L-104.5 9.50274L-105.533 12.2235L-106.567 10.7973L-107.6 8.64703L-108.633 9.2175L-109.667 9.78798L-110.7 10.6437L-111.733 12.0699L-112.767 9.37109L-113.8 9.65633L-114.833 11.0825L-115.867 9.94157L-115.996 11.3458L-117.029 11.631L-118.063 12.3551L-119.096 15.2075L-120.129 14.4834L-121.163 15.2075L-122.196 18.0599L-123.229 18.6303L-124.263 19.4861L-125.296 19.0692L-126.329 21.2194L-127.363 18.9375L-128.396 22.514L-129.429 21.6582L-130.463 20.5173L-131.496 22.9528L-132.529 21.6582L-133.563 23.238L-134.596 21.2414L-135.629 25.2347L-136.663 26.9461L-137.696 31.7951L-138.729 30.5006L-139.763 25.2127L-140.796 21.6363L-141.829 27.9115L-142.863 23.7646L-143.896 20.0565L-144.929 18.6303H-145.963L-146.996 17.4894L-148.029 21.9215L-149.063 22.2068L-150.096 20.7806L-151.129 19.7713L-152.163 20.9122L-153.196 20.627L-154.229 18.762L-155.263 20.4734L-156.296 23.1722L-157.329 23.611L-158.363 22.4701L-159.396 22.9089L-160.429 19.4861H-161.463L-162.496 12.9256L-163.529 19.9249L-164.563 15.6463L-165.596 14.7906L-166.629 16.3704L-167.663 18.2354L-168.696 18.5206L-169.729 17.5113L-170.763 17.0725L-171.796 21.7899L-172.829 25.0811L-173.863 21.0878L-174.896 25.2127L-175.929 27.2094L-176.963 25.0591L-177.996 21.7679L-179.029 25.3444L-180.063 24.4887L-181.096 24.6423L-182.129 27.4946L-183.163 25.2127L-184.196 29.2061L-185.229 27.9335L-186.263 28.7892L-187.296 27.6482L-188.329 32.212L-189.363 31.2027L-190.396 32.6289L-191.429 31.0711L-192.463 34.4939L-193.496 33.4846L-194.529 34.0551L-195.563 34.1867L-196.596 36.7539" stroke="#375D77" stroke-width="0.8"/>
        </g>
    </g>
    <defs>
        <linearGradient id="paint0_linear" x1="-41.5067" y1="13.9749" x2="-41.5067" y2="53.4962" gradientUnits="userSpaceOnUse">
            <stop stop-color="#375D77"/>
            <stop offset="1" stop-color="#375D77" stop-opacity="0"/>
        </linearGradient>
    </defs>
</svg>
