<svg width="1em" height="1em" viewBox="0 0 36 36" fill="none" xmlns="http://www.w3.org/2000/svg">
    <path d="M35.1989 2.44888C35.1084 2.34137 34.9788 2.27422 34.8387 2.26227L27.004 1.59311L26.8619 0.464033C26.8254 0.173573 26.5597 -0.0323013 26.2699 0.00419076L19.002 0.917968C18.9733 0.910515 18.944 0.90489 18.9135 0.902289L8.92382 0.0489796C8.63617 0.0236672 8.37504 0.244869 8.35057 0.531954L8.20165 2.2757L0.463856 3.24854C0.177545 3.28454 -0.0319152 3.55404 0.00401431 3.84057L3.95373 35.2566C3.97166 35.3999 3.94094 35.5376 3.99951 35.6762C4.08163 35.8703 4.2771 35.9999 4.48797 35.9999H30.4971C30.7899 35.9999 31.0272 35.7627 31.0272 35.4698V34.7794L32.0538 34.8671C32.3414 34.8921 32.6026 34.6713 32.6271 34.3841L35.3216 2.83566C35.3337 2.69553 35.2896 2.55645 35.1989 2.44888ZM3.95788 26.7905L1.12212 4.23424L3.95788 3.87776V26.7905V26.7905ZM9.3618 1.15042L14.001 1.54663L9.27728 2.14056L9.3618 1.15042ZM25.8762 1.12223L26.1471 3.27638H8.74122L25.8762 1.12223ZM31.6159 33.7657L31.0272 33.7154V18.2245C31.0272 17.9318 30.7899 17.6945 30.4971 17.6945C30.2042 17.6945 29.967 17.9317 29.967 18.2245V34.9397H5.01805V4.33655H29.9671V15.7509C29.9671 16.0437 30.2043 16.281 30.4972 16.281C30.79 16.281 31.0272 16.0437 31.0272 15.7509V3.80646C31.0272 3.51368 30.79 3.27638 30.4972 3.27638H27.2156L27.1392 2.66867L34.2203 3.2735L31.6159 33.7657Z" fill="currentColor"/>
    <path d="M27.67 6.10352H24.8429C24.6656 6.10352 24.5001 6.19204 24.4019 6.33955L23.2021 8.13927C21.9107 7.21417 20.3295 6.6689 18.6233 6.6689C18.3306 6.6689 18.0933 6.90613 18.0933 7.19898V14.5494C18.0933 14.8422 18.3305 15.0795 18.6233 15.0795H25.9738C26.2666 15.0795 26.5039 14.8423 26.5039 14.5494C26.5039 12.2926 25.55 10.2547 24.0247 8.81665L25.1267 7.16368H27.6701C27.9628 7.16368 28.2002 6.92645 28.2002 6.6336C28.2002 6.34075 27.9628 6.10352 27.67 6.10352ZM25.4233 14.0193H19.1534V7.74945C20.4389 7.84873 21.6249 8.30717 22.6132 9.0226L22.1402 9.73212C21.9925 9.9536 22.0358 10.2604 22.2399 10.4317C22.4788 10.6324 22.8494 10.5795 23.0223 10.3202L23.4271 9.71299C24.5541 10.8325 25.2937 12.3417 25.4233 14.0193Z" fill="currentColor"/>
    <path d="M27.6699 23.6315H22.8749L22.03 22.2797C23.3987 20.8615 24.242 18.933 24.242 16.8112C24.242 16.5183 24.0048 16.2811 23.7119 16.2811H16.8916V9.46075C16.8916 9.16797 16.6543 8.93066 16.3615 8.93066C12.0162 8.93066 8.48096 12.4659 8.48096 16.8112C8.48096 21.1565 12.0162 24.6917 16.3615 24.6917C18.1982 24.6917 19.8901 24.06 21.2316 23.0026L22.1316 24.4426C22.2285 24.5976 22.3983 24.6917 22.5811 24.6917H27.6699C27.9626 24.6917 28.1999 24.4545 28.1999 24.1616C28.1999 23.8688 27.9626 23.6315 27.6699 23.6315ZM20.2036 19.3573C20.0485 19.1089 19.7213 19.0335 19.4731 19.1887C19.2249 19.3438 19.1494 19.6709 19.3045 19.9192L20.6661 22.0976C19.4912 23.056 17.9924 23.6316 16.3615 23.6316C12.6008 23.6316 9.5412 20.572 9.5412 16.8113C9.5412 13.2288 12.3175 10.2827 15.8315 10.0113V16.8113C15.8315 17.104 16.0688 17.3413 16.3615 17.3413H23.1615C23.0431 18.8742 22.4156 20.2666 21.4486 21.3494L20.2036 19.3573Z" fill="currentColor"/>
    <path d="M11.8386 26.4585H7.31524C7.02253 26.4585 6.78516 26.6957 6.78516 26.9886C6.78516 27.2814 7.02246 27.5187 7.31524 27.5187H11.8386C12.1313 27.5187 12.3686 27.2814 12.3686 26.9886C12.3686 26.6957 12.1313 26.4585 11.8386 26.4585Z" fill="currentColor"/>
    <path d="M18.6232 26.4585H14.0999C13.8071 26.4585 13.5698 26.6957 13.5698 26.9886C13.5698 27.2814 13.8071 27.5187 14.0999 27.5187H18.6232C18.916 27.5187 19.1533 27.2814 19.1533 26.9886C19.1533 26.6957 18.916 26.4585 18.6232 26.4585Z" fill="currentColor"/>
    <path d="M14.6657 29.2856H7.31524C7.02253 29.2856 6.78516 29.5229 6.78516 29.8157C6.78516 30.1086 7.02246 30.3458 7.31524 30.3458H14.6657C14.9585 30.3458 15.1958 30.1086 15.1958 29.8157C15.1958 29.5229 14.9584 29.2856 14.6657 29.2856Z" fill="currentColor"/>
    <path d="M18.6233 29.2856H16.9271C16.6343 29.2856 16.397 29.5229 16.397 29.8157C16.397 30.1086 16.6343 30.3458 16.9271 30.3458H18.6233C18.9161 30.3458 19.1534 30.1086 19.1534 29.8157C19.1534 29.5229 18.9161 29.2856 18.6233 29.2856Z" fill="currentColor"/>
    <path d="M9.5769 32.1128H7.31524C7.02253 32.1128 6.78516 32.35 6.78516 32.6429C6.78516 32.9357 7.02246 33.173 7.31524 33.173H9.5769C9.86968 33.173 10.107 32.9357 10.107 32.6429C10.107 32.35 9.86968 32.1128 9.5769 32.1128Z" fill="currentColor"/>
    <path d="M18.6232 32.1128H11.8382C11.5455 32.1128 11.3081 32.35 11.3081 32.6429C11.3081 32.9357 11.5454 33.173 11.8382 33.173H18.6232C18.916 33.173 19.1533 32.9357 19.1533 32.6429C19.1533 32.35 18.916 32.1128 18.6232 32.1128Z" fill="currentColor"/>
</svg>
