<svg width="215" height="40" viewBox="0 0 215 40" fill="none" xmlns="http://www.w3.org/2000/svg">
    <g opacity="0.5" clip-path="url(#clip0)">
        <g opacity="0.5">
            <path opacity="0.5" d="M395 37.5256L393.381 36.8423L391.762 33.9865L390.143 29.5364L388.524 36.2642L386.906 36.7197L385.287 38.6644L383.668 40.7143L382.049 39.3477L380.43 34.3369L378.811 33.531L377.192 32.0593L375.573 32.6375L373.954 32.0593L372.336 33.4259L370.717 39.1199H369.098L367.479 36.5094L365.86 36.8423L364.241 32.9704L362.622 28.5377L361.003 30.3598L359.384 33.7763L357.766 31.7264L356.147 28.5377L354.528 27.8544L352.909 30.3598L351.29 33.2156L349.671 32.7601L348.052 30.4825L346.433 31.5162L344.815 28.2049L343.196 31.3935L341.577 31.0431L339.958 30.5876L338.339 31.9542L336.72 33.5485L335.101 29.5539L333.482 28.31L331.863 30.465L330.245 26.2601L328.626 28.1873L327.007 30.5876L325.388 31.1658H323.769L322.15 32.0768L320.531 34.3544L318.912 35.0377L317.293 37.0876L315.675 36.2817H314.056H312.437L310.818 35.1429L309.199 35.3706L307.58 34.7925L306.973 30.1146L305.354 26.9259L303.735 25.1038L302.116 25.2264L300.497 27.2763L298.879 30.1321L297.26 29.7992L295.641 34.9326L294.022 31.4111L292.403 31.1833L290.784 32.5499L289.165 31.6388L287.546 29.9218L285.927 32.655L284.309 31.4111L282.69 30.5L281.071 28.6779L279.452 27.9946L277.833 30.1496L276.214 31.7439L274.595 30.2722L272.976 29.8167L271.358 29.1334L269.739 26.9609L268.12 27.9946L266.501 33.0054L264.882 31.9892L263.263 33.3558L261.644 32.3396L260.025 29.6065L258.406 30.973L256.788 34.1617L255.169 33.1456L253.55 30.6402L251.931 33.8288L250.312 31.5512L248.693 31.4461L247.074 29.1685L245.455 27.3464L243.836 29.0633L242.218 28.4852L240.599 27.1186L238.98 29.3962L237.361 27.9245L235.742 29.186L234.123 28.9582L232.504 31.5687L230.885 31.9016L229.266 31.3234L227.648 32.4623L226.029 36.1065L224.41 36.0013L222.791 36.9124L221.172 35.7736L219.553 36.6846H217.934L216.315 37.3679L214.696 36.124L213.078 36.7022L211.459 31.5687L209.84 32.7075L208.221 32.4798L206.602 29.3962L204.983 28.0297L203.364 30.0795L201.745 25.2965L200.126 24.4906L198.508 22.8962L196.889 22.4407L195.27 21.0741L193.651 18.7965L192.032 18.0081L190.413 18.2358L188.794 17.903L187.175 18.2358L185.557 18.3585L183.938 18.2358L182.319 20.5135L180.7 19.1469L179.081 22.0027L177.462 21.6523L175.843 23.597L174.224 22.4582L172.605 25.4191L170.987 24.5081H169.368L167.749 25.4191L166.13 30.097L164.511 26.6806L162.892 25.0863L161.273 21.7925L159.654 25.3315L158.035 26.1375L156.417 25.7871L154.798 26.593L153.179 25.5768L151.56 25.3491L149.941 23.1941L148.322 21.9326L146.703 22.7385H145.084L143.465 23.0714L141.847 24.5431L140.228 28.8706L138.609 22.6159L136.99 23.527L135.371 25.5768L133.752 23.6321L132.133 24.7709L130.514 28.6429H128.895L127.277 28.2925L125.658 28.1873L124.039 27.3814L122.42 27.504L120.801 29.4313L119.182 30.1146L117.563 28.9757L115.944 35.5809L114.325 36.2642L112.707 37.0701L111.088 36.6146L109.469 34.2143L107.85 30.7978L106.231 29.3261L104.612 27.1712L102.993 25.5768L101.374 23.8598L99.7555 24.7709L98.1366 22.9488L96.5177 18.2709L94.8988 27.7318L93.2799 28.5377L91.6611 25.1213L90.0422 24.2102L88.4233 24.7884L86.8044 26.2601L85.1855 19.5499L83.5666 20.4609L81.9477 22.8437L80.3288 21.0216L78.71 21.2493L77.091 21.5997L75.4722 22.6159L73.8533 23.7547L72.2344 18.3935L70.6155 18.0606L68.9966 12.5943L67.3777 13.9609L65.7589 11.5606L64.14 11.4555L62.5211 11L60.9022 11.6833L59.2833 12.4717L57.6644 14.6442L56.0455 13.5054L54.4266 11.7884L52.8077 12.2439L51.1889 12.6995L49.57 13.3827L47.9511 14.5216L46.3322 12.3666L44.7133 12.5943L43.0945 13.7332L41.4755 12.8221L41.2732 13.9434L39.6543 14.1712L38.0354 14.7493L36.4166 17.027L34.7976 16.4488L33.1788 17.027L31.5598 19.3046L29.941 19.7601L28.3221 20.4434L26.7032 20.1105L25.0843 21.8275L23.4654 20.0054L21.8466 22.8612L20.2277 22.1779L18.6088 21.2668L16.9899 23.2116L15.371 22.1779L13.7521 23.4394L12.1332 21.845L10.5143 25.0337L8.89545 26.4003L7.27656 30.2722L5.65768 29.2385L4.0388 25.0162L2.41988 22.1604L0.80103 27.1712L-0.817886 23.8598L-2.43674 20.8989L-4.05565 19.7601H-5.67454L-7.29342 18.8491L-8.9123 22.3881L-10.5312 22.6159L-12.1501 21.4771L-13.769 20.6712L-15.3879 21.5822L-17.0068 21.3544L-18.6256 19.8652L-20.2445 21.2318L-21.8634 23.3868L-23.4823 23.7372L-25.1012 22.8261L-26.7201 23.1766L-28.3389 20.4434H-29.9578L-31.5767 15.2049L-33.1956 20.7938L-34.8145 17.3774L-36.4334 16.6941L-38.0523 17.9555L-39.6712 19.4447L-41.2901 19.6725L-42.9089 18.8666L-44.5278 18.5162L-46.1467 22.283L-47.7656 24.9111L-49.3845 21.7224L-51.0034 25.0162L-52.6222 26.6105L-54.2412 24.8935L-55.86 22.2655L-57.4789 25.1213L-59.0978 24.438L-60.7167 24.5606L-62.3356 26.8383L-63.9545 25.0162L-65.5733 28.2049L-67.1922 27.1887L-68.8111 27.872L-70.43 26.9609L-72.0489 30.6051L-73.6678 29.7992L-75.2867 30.938L-76.9056 29.6941L-78.5244 32.4272L-80.1433 31.6213L-81.7622 32.0768L-83.3811 32.1819L-85 34.2318V56H395V37.5256Z" fill="url(#paint0_linear)" fill-opacity="0.8"/>
            <path d="M395 37.7807L393.381 37.0908L391.762 34.2075L390.143 29.7146L388.524 36.5071L386.906 36.967L385.287 38.9304L383.668 41L382.049 39.6203L380.43 34.5613L378.811 33.7476L377.192 32.2618L375.573 32.8455L373.954 32.2618L372.336 33.6415L370.717 39.3903H369.098L367.479 36.7547L365.86 37.0908L364.241 33.1816L362.622 28.7064L361.003 30.546L359.384 33.9953L357.766 31.9257L356.147 28.7064L354.528 28.0165L352.909 30.546L351.29 33.4292L349.671 32.9693L348.052 30.6698L346.433 31.7134L344.815 28.3703L343.196 31.5896L341.577 31.2358L339.958 30.7759L338.339 32.1557L336.72 33.7653L335.101 29.7323L333.482 28.4764L331.863 30.6521L330.245 26.4068L328.626 28.3526L327.007 30.7759L325.388 31.3597H323.769L322.15 32.2795L320.531 34.579L318.912 35.2689L317.293 37.3384L315.675 36.5248H314.056H312.437L310.818 35.375L309.199 35.605L307.58 35.0212L306.973 30.2983L305.354 27.079L303.735 25.2394L302.116 25.3632L300.497 27.4328L298.879 30.316L297.26 29.98L295.641 35.1627L294.022 31.6073L292.403 31.3774L290.784 32.7571L289.165 31.8373L287.546 30.1038L285.927 32.8632L284.309 31.6073L282.69 30.6875L281.071 28.8479L279.452 28.158L277.833 30.3337L276.214 31.9434L274.595 30.4575L272.976 29.9976L271.358 29.3078L269.739 27.1144L268.12 28.158L266.501 33.217L264.882 32.191L263.263 33.5708L261.644 32.5448L260.025 29.7854L258.406 31.1651L256.788 34.3844L255.169 33.3585L253.55 30.829L251.931 34.0483L250.312 31.7488L248.693 31.6427L247.074 29.3432L245.455 27.5035L243.836 29.237L242.218 28.6533L240.599 27.2736L238.98 29.5731L237.361 28.0873L235.742 29.3608L234.123 29.1309L232.504 31.7665L230.885 32.1026L229.266 31.5189L227.648 32.6686L226.029 36.3479L224.41 36.2417L222.791 37.1616L221.172 36.0118L219.553 36.9316H217.934L216.315 37.6215L214.696 36.3656L213.078 36.9493L211.459 31.7665L209.84 32.9163L208.221 32.6863L206.602 29.5731L204.983 28.1934L203.364 30.263L201.745 25.434L200.126 24.6203L198.508 23.0106L196.889 22.5507L195.27 21.171L193.651 18.8715L192.032 18.0755L190.413 18.3054L188.794 17.9693L187.175 18.3054L185.557 18.4292L183.938 18.3054L182.319 20.605L180.7 19.2252L179.081 22.1085L177.462 21.7547L175.843 23.7182L174.224 22.5684L172.605 25.5578L170.987 24.638H169.368L167.749 25.5578L166.13 30.2807L164.511 26.8314L162.892 25.2217L161.273 21.8962L159.654 25.4693L158.035 26.283L156.417 25.9292L154.798 26.7429L153.179 25.717L151.56 25.487L149.941 23.3113L148.322 22.0377L146.703 22.8514H145.084L143.465 23.1875L141.847 24.6733L140.228 29.0425L138.609 22.7276L136.99 23.6474L135.371 25.717L133.752 23.7535L132.133 24.9033L130.514 28.8125H128.895L127.277 28.4587L125.658 28.3526L124.039 27.5389L122.42 27.6627L120.801 29.6085L119.182 30.2983L117.563 29.1486L115.944 35.8172L114.325 36.5071L112.707 37.3207L111.088 36.8608L109.469 34.4375L107.85 30.9882L106.231 29.5024L104.612 27.3266L102.993 25.717L101.374 23.9835L99.7555 24.9033L98.1366 23.0637L96.5177 18.3408L94.8988 27.8927L93.2799 28.7064L91.6611 25.2571L90.0422 24.3373L88.4233 24.921L86.8044 26.4068L85.1855 19.6321L83.5666 20.5519L81.9478 22.9575L80.3289 21.1179L78.71 21.3479L77.0911 21.7016L75.4722 22.7276L73.8533 23.8774L72.2344 18.4646L70.6155 18.1285L68.9966 12.6097L67.3777 13.9894L65.7589 11.566L64.14 11.4599L62.5211 11L60.9022 11.6899L59.2833 12.4858L57.6644 14.6792L56.0455 13.5295L54.4267 11.796L52.8077 12.2559L51.1889 12.7158L49.57 13.4057L47.9511 14.5554L46.3322 12.3797L44.7133 12.6097L43.0945 13.7594L41.4756 12.8396L41.2732 13.9717L39.6543 14.2017L38.0354 14.7854L36.4165 17.0849L34.7976 16.5012L33.1788 17.0849L31.5598 19.3844L29.941 19.8443L28.3221 20.5342L26.7032 20.1981L25.0843 21.9316L23.4655 20.092L21.8466 22.9752L20.2277 22.2854L18.6088 21.3656L16.9899 23.329L15.371 22.2854L13.7521 23.559L12.1332 21.9493L10.5143 25.1686L8.89545 26.5483L7.27655 30.4575L5.65768 29.4139L4.03879 25.1509L2.41989 22.2677L0.801025 27.3266L-0.817902 23.9835L-2.43674 20.9941L-4.05563 19.8443H-5.67453L-7.29343 18.9245L-8.91229 22.4976L-10.5312 22.7276L-12.1501 21.5778L-13.769 20.7642L-15.3879 21.684L-17.0067 21.454L-18.6256 19.9505L-20.2445 21.3302L-21.8634 23.5059L-23.4823 23.8597L-25.1012 22.9399L-26.72 23.2936L-28.339 20.5342H-29.9578L-31.5767 15.2453L-33.1956 20.888L-34.8145 17.4387L-36.4334 16.7488L-38.0523 18.0224L-39.6712 19.5259L-41.29 19.7559L-42.9089 18.9422L-44.5278 18.5884L-46.1467 22.3915L-47.7656 25.0448L-49.3845 21.8255L-51.0034 25.1509L-52.6223 26.7606L-54.2411 25.0271L-55.86 22.3738L-57.4789 25.2571L-59.0978 24.5672L-60.7167 24.691L-62.3356 26.9906L-63.9545 25.1509L-65.5734 28.3703L-67.1922 27.3443L-68.8111 28.0342L-70.43 27.1144L-72.0489 30.7936L-73.6678 29.98L-75.2867 31.1297L-76.9055 29.8738L-78.5244 32.6333L-80.1433 31.8196L-81.7622 32.2795L-83.3811 32.3856L-85 34.4552" stroke="#375D77" stroke-width="0.8"/>
        </g>
        <g opacity="0.5" clip-path="url(#clip1)">
            <g filter="url(#filter0_f)">
                <rect x="10.7029" y="40" width="192.652" height="18" fill="#A8B6C5"/>
            </g>
        </g>
    </g>
    <defs>
        <filter id="filter0_f" x="-4.29712" y="25" width="222.652" height="48" filterUnits="userSpaceOnUse" color-interpolation-filters="sRGB">
            <feFlood flood-opacity="0" result="BackgroundImageFix"/>
            <feBlend mode="normal" in="SourceGraphic" in2="BackgroundImageFix" result="shape"/>
            <feGaussianBlur stdDeviation="7.5" result="effect1_foregroundBlur"/>
        </filter>
        <linearGradient id="paint0_linear" x1="157.973" y1="16.0912" x2="157.973" y2="47.9526" gradientUnits="userSpaceOnUse">
            <stop stop-color="#375D77"/>
            <stop offset="1" stop-color="#375D77" stop-opacity="0"/>
        </linearGradient>
        <clipPath id="clip0">
            <rect width="214.058" height="40" fill="white"/>
        </clipPath>
        <clipPath id="clip1">
            <rect width="214.058" height="28" fill="white" transform="translate(0 12)"/>
        </clipPath>
    </defs>
</svg>
